<?xml version="1.0" encoding="utf-8"?>
<svg version="1.1" id="Layer_1" xmlns="http://www.w3.org/2000/svg" xmlns:xlink="http://www.w3.org/1999/xlink" x="0px" y="0px"
     viewBox="0 0 20 20" width="20" height="20" style="enable-background:new 0 0 20 20;" xml:space="preserve">
<style type="text/css">
    .st0{fill:none;stroke:#297994;stroke-width:2;stroke-miterlimit:10;}
    .st1{fill:none;stroke:#297994;stroke-width:1.5;stroke-miterlimit:10;}
</style>
<polyline class="st0" points="12,7 18,7 18,1.1 "/>
<path class="st1" d="M18,9.9c0,4.4-3.6,8-8,8s-8-3.6-8-8s3.6-8,8-8c3.5,0,6.4,2.2,7.5,5.3"/>
</svg>
