<?xml version="1.0" encoding="UTF-8"?>
<svg width="1403px" height="136px" viewBox="0 0 1403 136" version="1.1" xmlns="http://www.w3.org/2000/svg" xmlns:xlink="http://www.w3.org/1999/xlink">
    <!-- Generator: Sketch 58 (84663) - https://sketch.com -->
    <title>infographic_updated</title>
    <desc>Created with Sketch.</desc>
    <defs>
        <path d="M30.3910714,70.7815385 C15.1955357,70.7815385 0,66.8492308 0,58.9846154 L0,11.7969231 C0,3.93230769 15.1955357,0 30.3910714,0 C45.5866071,0 60.7821429,3.93230769 60.7821429,11.7969231 L60.7821429,58.9846154 C60.7821429,66.8492308 45.5866071,70.7815385 30.3910714,70.7815385 Z M3.79888393,49.2718154 L3.79888393,58.9846154 C3.79888393,62.2091077 14.1698371,66.8492308 30.3910714,66.8492308 C46.6123058,66.8492308 56.9832589,62.2091077 56.9832589,58.9846154 L56.9832589,49.2718154 C46.0424732,56.9004923 14.7396696,56.9004923 3.79888393,49.2718154 Z M3.79888393,43.2553846 C3.79888393,46.4798769 14.1698371,51.12 30.3910714,51.12 C46.6123058,51.12 56.9832589,46.4798769 56.9832589,43.2553846 L56.9832589,33.5425846 C46.0424732,41.1712615 14.7396696,41.1712615 3.79888393,33.5425846 L3.79888393,43.2553846 Z M3.79888393,27.5261538 C3.79888393,30.7506462 14.1698371,35.3907692 30.3910714,35.3907692 C46.6123058,35.3907692 56.9832589,30.7506462 56.9832589,27.5261538 L56.9832589,17.8133538 C46.0424732,25.4420308 14.7396696,25.4420308 3.79888393,17.8133538 L3.79888393,27.5261538 Z M3.79888393,11.7969231 C3.79888393,15.0214154 14.1698371,19.6615385 30.3910714,19.6615385 C46.6123058,19.6615385 56.9832589,15.0214154 56.9832589,11.7969231 C56.9832589,8.57243077 46.6123058,3.93230769 30.3910714,3.93230769 C14.1698371,3.93230769 3.79888393,8.57243077 3.79888393,11.7969231 Z" id="path-1"></path>
    </defs>
    <g id="infographic_updated" stroke="none" stroke-width="1" fill="none" fill-rule="evenodd">
        <g id="Group-4" transform="translate(1.000000, 1.000000)">
            <circle id="Oval-2" stroke="#0079AA" stroke-width="1.8" cx="20" cy="20" r="19.1"></circle>
            <text id="1" font-family="OpenSans-Bold, Open Sans" font-size="20" font-weight="bold" fill="#0079AA">
                <tspan x="14.2919922" y="27">1</tspan>
            </text>
        </g>
        <g id="Group" transform="translate(90.000000, 63.000000)">
            <g id="Group-Copy-3" transform="translate(98.000000, 0.000000)" stroke="#898989" stroke-width="3.6">
                <path d="M28.8,24.673079 L28.8,57.0826028 L58.2,42.326921 L58.2,9.91739717 L28.8,24.673079 Z" id="Rectangle-12"></path>
                <path d="M28,25 L9,16" id="Path-3"></path>
                <path d="M22,33 L14,28" id="Path-3"></path>
                <path d="M22,40 L14,35" id="Path-3"></path>
                <path d="M28,58 L9,49" id="Path-3"></path>
                <path d="M58,8 L41,0" id="Path-3"></path>
                <polyline id="Path-4" points="42 0 10 15 10 50"></polyline>
                <polyline id="Path-6" points="10 39.6666667 0 44.6666667 0 53 28.3333333 68 70 46.3333333 70 39.6666667 58.3333333 33"></polyline>
            </g>
            <g id="Group-22-Copy" transform="translate(60.000000, 22.000000)">
                <g id="Group-6">
                    <rect id="Rectangle-7-Copy-3" fill="#898989" x="0" y="6.5" width="19.8" height="3.6"></rect>
                    <polyline id="Path-5" stroke="#898989" stroke-width="3.6" points="13.2 0.4 22.2 8.4 13.2 16.4"></polyline>
                </g>
            </g>
            <g id="Group-19-Copy" transform="translate(0.000000, 2.000000)">
                <g id="Group-21" transform="translate(0.200000, 0.200000)">
                    <path d="M1.8,1.8 L1.8,55.8 L41.4,55.8 L41.4,12.8789727 L31.9987003,1.8 L1.8,1.8 Z" id="Rectangle-8" stroke="#898989" stroke-width="3.6"></path>
                    <polygon id="Rectangle-9" fill="#898989" points="9 23.4 34.2 23.4 34.2 27 9 27"></polygon>
                    <polygon id="Rectangle-9" fill="#898989" points="9 30.6 34.2 30.6 34.2 34.2 9 34.2"></polygon>
                    <polygon id="Rectangle-9" fill="#898989" points="9 37.8 34.2 37.8 34.2 41.4 9 41.4"></polygon>
                    <polyline id="Path-2" stroke="#898989" stroke-width="3.6" points="30.6 1.8 30.6 12.6 39.6 12.6"></polyline>
                </g>
            </g>
        </g>
        <g id="Group-17-Copy" transform="translate(540.600000, 66.400000)">
            <g id="Group-10-Copy-8"></g>
        </g>
        <g id="Group-4-Copy" transform="translate(448.000000, 1.000000)">
            <circle id="Oval-2" stroke="#0079AA" stroke-width="1.8" cx="20" cy="20" r="19.1"></circle>
            <text id="2" font-family="OpenSans-Bold, Open Sans" font-size="20" font-weight="bold" fill="#0079AA">
                <tspan x="14.2919922" y="27">2</tspan>
            </text>
        </g>
        <g id="Group-14-Copy" transform="translate(940.000000, 61.000000)">
            <g id="Group-4-Copy-10" transform="translate(0.000000, 9.000000)">
                <polygon id="Path" fill="#898989" points="46.8 34.92 32.9117143 52.2 35.4857143 40.68 27 40.68 32.148 23.4 43.9714286 23.4 38.3142857 34.92"></polygon>
                <rect id="Rectangle-14" stroke="#898989" stroke-width="3.6" x="1.8" y="1.8" width="68.4" height="14.4"></rect>
                <rect id="Rectangle-14" stroke="#898989" stroke-width="3.6" x="5.4" y="16.2" width="61.2" height="43.2"></rect>
            </g>
            <g id="Group-33" transform="translate(48.600000, 0.000000)">
                <circle id="Oval" fill="#30B230" cx="17.1" cy="17.1" r="17.1"></circle>
                <polyline id="Path-7" stroke="#FFFFFF" stroke-width="2.88684" points="9.5 16.7462727 15.4152044 22.3974932 25.6042471 11.4"></polyline>
            </g>
        </g>
        <g id="Group-4-Copy-2" transform="translate(837.000000, 1.000000)">
            <circle id="Oval-2" stroke="#0079AA" stroke-width="1.8" cx="20" cy="20" r="19.1"></circle>
            <text id="3" font-family="OpenSans-Bold, Open Sans" font-size="20" font-weight="bold" fill="#0079AA">
                <tspan x="14.2919922" y="27">3</tspan>
            </text>
        </g>
        <g id="Group-4" transform="translate(1233.000000, 1.000000)">
            <circle id="Oval-2" stroke="#0079AA" stroke-width="1.8" cx="20" cy="20" r="19.1"></circle>
            <text id="4" font-family="OpenSans-Bold, Open Sans" font-size="20" font-weight="bold" fill="#0079AA">
                <tspan x="14.2919922" y="27">4</tspan>
            </text>
        </g>
        <g id="Group-16-Copy" transform="translate(1307.000000, 61.000000)">
            <g id="Group-7">
                <g id="color/UI/primary-Copy-6">
                    <mask id="mask-2" fill="white">
                        <use xlink:href="#path-1"></use>
                    </mask>
                    <use id="Mask" fill="#979797" fill-rule="nonzero" xlink:href="#path-1"></use>
                    <g id="color/UI/primary-disabled" mask="url(#mask-2)" fill="#767676" opacity="0.4">
                        <g transform="translate(-9.803571, -3.932308)" id="text-gray@40%">
                            <rect x="0" y="0" width="78" height="79"></rect>
                        </g>
                    </g>
                </g>
            </g>
        </g>
        <text id="Receive-log-entry-or" font-family="OpenSans-Semibold, Open Sans" font-size="20" font-weight="500" fill="#0079AA">
            <tspan x="49.0976562" y="29">Receive log entry or event</tspan>
        </text>
        <text id="Check-built-in-rules" font-family="OpenSans-Semibold, Open Sans" font-size="20" font-weight="500" fill="#0079AA">
            <tspan x="498.172852" y="29">Check built-in rules</tspan>
        </text>
        <text id="Check-custom-rules" font-family="OpenSans-Semibold, Open Sans" font-size="20" font-weight="500" fill="#0079AA">
            <tspan x="887.344727" y="29">Check custom rules</tspan>
        </text>
        <text id="Store-entry" font-family="OpenSans-Semibold, Open Sans" font-size="20" font-weight="500" fill="#0079AA">
            <tspan x="1283.0791" y="29">Store entry</tspan>
        </text>
        <path d="M309,21.45 L439,21.45" id="Path-8" stroke="#0079AA" stroke-width="1.8"></path>
        <path d="M694,21.45 L824,21.45" id="Path-8-Copy" stroke="#0079AA" stroke-width="1.8"></path>
        <path d="M1088,21.45 L1218,21.45" id="Path-8-Copy-2" stroke="#0079AA" stroke-width="1.8"></path>
        <g id="Group-2" transform="translate(548.000000, 61.000000)">
            <g id="Group-4-Copy-9" transform="translate(0.000000, 9.000000)" stroke="#898989" stroke-width="3.6">
                <rect id="Rectangle-14" x="1.8" y="1.8" width="68.4" height="14.4"></rect>
                <rect id="Rectangle-14" x="5.4" y="16.2" width="61.2" height="43.2"></rect>
            </g>
            <text id="OOB" font-family="OpenSans-Bold, Open Sans" font-size="18" font-weight="bold" letter-spacing="-0.683999991" fill="#898989">
                <tspan x="16.2" y="51.4">OO</tspan>
                <tspan x="43.4843438" y="51.4">B</tspan>
            </text>
            <g id="Group-33" transform="translate(50.400000, 0.000000)">
                <circle id="Oval" fill="#30B230" cx="17.1" cy="17.1" r="17.1"></circle>
                <polyline id="Path-7" stroke="#FFFFFF" stroke-width="2.88684" points="9.5 16.7462727 15.4152044 22.3974932 25.6042471 11.4"></polyline>
            </g>
        </g>
    </g>
</svg>