<?xml version="1.0" encoding="utf-8"?>
<svg version="1.1" id="Layer_1" xmlns="http://www.w3.org/2000/svg" xmlns:xlink="http://www.w3.org/1999/xlink" x="0px" y="0px"
	 viewBox="0 0 20 20" style="enable-background:new 0 0 20 20;" xml:space="preserve">
<style type="text/css">
	.st0{fill:#FFFFFF;stroke:#297994;stroke-width:2;stroke-miterlimit:10;}
	.st1{fill:#FFFFFF;}
	.st2{fill:none;stroke:#767676;stroke-miterlimit:10;}
</style>
<path class="st0" d="M4.5,7.2c1.1-2.7,3.8-4.7,7-4.7c4.1,0,7.5,3.4,7.5,7.5s-3.4,7.5-7.5,7.5c-3.1,0-5.8-1.9-7-4.7"/>
<rect y="8" class="st1" width="9" height="4"/>
<path class="st2" d="M14,10H1 M11,13l3-3l-3-3"/>
</svg>
