<?xml version="1.0" encoding="utf-8"?>
<svg version="1.1" id="Layer_1" xmlns="http://www.w3.org/2000/svg" xmlns:xlink="http://www.w3.org/1999/xlink" x="0px" y="0px"
	 viewBox="0 0 20 20" style="enable-background:new 0 0 20 20;" xml:space="preserve">
<style type="text/css">
	.st0{fill:#FFFFFF;stroke:#767676;stroke-miterlimit:10;}
	.st1{fill:#297994;}
</style>
<rect x="1.5" y="1.5" class="st0" width="17" height="17"/>
<path class="st1" d="M5.9,11.2C5.9,11,6,10.9,6,10.8C6.3,10,6.6,9.3,7,8.6c0.2-0.6,0.6-1,1.3-1.2C8.9,7.3,9.5,7.5,10,8
	c0,0,0,0.1,0.1,0.1c1.1-0.9,2.2-1.1,3.3,0c0.3-0.3,0.7-0.5,1.2-0.6c1.1-0.3,2.1,0.3,2.4,1.4c0,0.1,0,0.2,0,0.3c0,1.1,0,2.1,0,3.2
	c0,0.4-0.2,0.7-0.5,0.8c-0.6,0.2-1-0.2-1-0.8c0-0.9,0-1.8,0-2.7c0-0.4-0.3-0.7-0.7-0.8S14,9.1,13.9,9.4c0,0.1-0.1,0.3-0.1,0.4
	c0,0.9,0,1.7,0,2.6c0,0.6-0.5,0.9-1,0.8c-0.3-0.1-0.5-0.4-0.5-0.8c0-0.9,0-1.8,0-2.6c0-0.5-0.2-0.8-0.7-0.9c-0.6-0.1-1,0.3-1,0.8
	c0,0.9,0,1.8,0,2.7c0,0.6-0.5,0.9-1,0.8C9.2,13,9,12.7,9,12.4c0-0.5,0-1,0-1.4c0-0.6,0-1.1,0-1.7C9,9.2,9,9.1,9,9
	C8.9,8.9,8.8,8.8,8.7,8.8C8.6,8.7,8.5,8.8,8.4,9C8.3,9.2,8.2,9.5,8,9.8c-0.4,0.8-0.7,1.6-1.1,2.4c-0.1,0.2-0.2,0.4-0.3,0.5
	c-0.4,0.4-1.1,0.5-1.4,0c-0.1-0.2-0.3-0.3-0.3-0.5C4.2,11,3.7,9.8,3.1,8.5c-0.2-0.4,0-0.9,0.4-1c0.4-0.2,0.8,0,1,0.4
	c0.4,1,0.9,2,1.3,3C5.8,11,5.8,11.1,5.9,11.2z"/>
</svg>
